…
Starwars Graph - Edge List Creation: Execution
====
class: small-code

```r
el <- pmap(el_schema, el_function) %>%
  bind_rows() %>%
  filter(!is.na(to))
el
```

```
# A tibble: 716 x 3
   from               to            type      
   <chr>              <chr>         <chr>     
 1 Luke Skywalker     blond         hair_color
 2 Darth Vader        none          hair_color
 3 Leia Organa        brown         hair_color
 4 Owen Lars          brown, grey   hair_color
 5 Beru Whitesun lars brown         hair_color
 6 Biggs Darklighter  black         hair_color
 7 Obi-Wan Kenobi     auburn, white hair_color
 8 Anakin Skywalker   blond         hair_color
 9 Wilhuff Tarkin     auburn, grey  hair_color
10 Chewbacca          brown         hair_color
# ... with 706 more rows
```
…
Starwars Graph - Edge List: Final
====
class: small-code

```r
el
```

```
# A tibble: 738 x 3
   from                         to                type      
   <chr>                        <chr>             <chr>     
 1 character:Luke Skywalker     hair_color:blond  hair_color
 2 character:Darth Vader        hair_color:none   hair_color
 3 character:Leia Organa        hair_color:brown  hair_color
 4 character:Owen Lars          hair_color:brown  hair_color
 5 character:Owen Lars          hair_color:grey   hair_color
 6 character:Beru Whitesun lars hair_color:brown  hair_color
 7 character:Biggs Darklighter  hair_color:black  hair_color
 8 character:Obi-Wan Kenobi     hair_color:auburn hair_color
 9 character:Obi-Wan Kenobi     hair_color:white  hair_color
10 character:Anakin Skywalker   hair_color:blond  hair_color
# ... with 728 more rows
```
…
Starwars Graph - Node List
====
class: small-code

```r
nl
```

```
# A tibble: 253 x 5
   name                         type      height  mass birth_year
   <chr>                        <chr>      <int> <dbl>      <dbl>
 1 character:Luke Skywalker     character    172   77.       19.0
 2 character:Darth Vader        character    202  136.       41.9
 3 character:Leia Organa        character    150   49.       19.0
 4 character:Owen Lars          character    178  120.       52.0
 5 character:Beru Whitesun lars character    165   75.       47.0
 6 character:Biggs Darklighter  character    183   84.       24.0
 7 character:Obi-Wan Kenobi     character    182   77.       57.0
 8 character:Anakin Skywalker   character    188   84.       41.9
 9 character:Wilhuff Tarkin     character    180   NA        64.0
10 character:Chewbacca          character    228  112.      200. 
# ... with 243 more rows
```
…
Starwars Graph - Indirect Relationships
====
class: small-code

```r
character_film <- starwars %>%
  select(name, films) %>%
  unnest() 

character_film
```

```
# A tibble: 173 x 2
   name           films                  
   <chr>          <chr>                  
 1 Luke Skywalker Revenge of the Sith    
 2 Luke Skywalker Return of the Jedi     
 3 Luke Skywalker The Empire Strikes Back
 4 Luke Skywalker A New Hope             
 5 Luke Skywalker The Force Awakens      
 6 C-3PO          Attack of the Clones   
 7 C-3PO          The Phantom Menace     
 8 C-3PO          Revenge of the Sith    
 9 C-3PO          Return of the Jedi     
10 C-3PO          The Empire Strikes Back
# ... with 163 more rows
```
…
Starwars Graph - Indirect Relationships
=====
class: small-code

```r
character_character <- character_film %>%
  left_join(film) %>%
  rename(character = name) %>%
  unnest() 
character_character
```

```
# A tibble: 5,013 x 3
   character      films               name              
   <chr>          <chr>               <chr>             
 1 Luke Skywalker Revenge of the Sith Luke Skywalker    
 2 Luke Skywalker Revenge of the Sith C-3PO             
 3 Luke Skywalker Revenge of the Sith R2-D2             
 4 Luke Skywalker Revenge of the Sith Darth Vader       
 5 Luke Skywalker Revenge of the Sith Leia Organa       
 6 Luke Skywalker Revenge of the Sith Owen Lars         
 7 Luke Skywalker Revenge of the Sith Beru Whitesun lars
 8 Luke Skywalker Revenge of the Sith Obi-Wan Kenobi    
 9 Luke Skywalker Revenge of the Sith Anakin Skywalker  
10 Luke Skywalker Revenge of the Sith Wilhuff Tarkin    
# ... with 5,003 more rows
```
…
```r
character_character %<>%
  group_by(character, name) %>%
  count(sort = T) %>%
  filter(character != name) %>%
  rename(movies_shared = n)

character_character
```

```
# A tibble: 3,586 x 3
# Groups:   character, name [3,586]
   character      name           movies_shared
   <chr>          <chr>                  <int>
 1 C-3PO          Obi-Wan Kenobi             6
 2 C-3PO          R2-D2                      6
 3 Obi-Wan Kenobi C-3PO                      6
 4 Obi-Wan Kenobi R2-D2                      6
 5 R2-D2          C-3PO                      6
 6 R2-D2          Obi-Wan Kenobi             6
 7 C-3PO          Palpatine                  5
 8 C-3PO          Yoda                       5
 9 Chewbacca      Leia Organa                5
10 Chewbacca      Luke Skywalker             5
# ... with 3,576 more rows
```
…
character_character
```

```
# A tibble: 1,793 x 3
   character      name           movies_shared
   <chr>          <chr>                  <int>
 1 C-3PO          Obi-Wan Kenobi             6
 2 C-3PO          R2-D2                      6
 3 Obi-Wan Kenobi R2-D2                      6
 4 C-3PO          Palpatine                  5
 5 C-3PO          Yoda                       5
 6 Chewbacca      Leia Organa                5
 7 Chewbacca      Luke Skywalker             5
 8 Chewbacca      R2-D2                      5
 9 Leia Organa    Luke Skywalker             5
10 Leia Organa    R2-D2                      5
# ... with 1,783 more rows
```
…
