…
Graph Example
=====

```r
text_df
```

```
# A tibble: 23 x 4
   from    to        sentence_id next_id
   <chr>   <chr>           <int>   <int>
 1 graphs  are                 1       1
 2 are     an                  1       2
 3 an      awesome             1       3
 4 awesome data                1       4
 5 data    structure           1       5
 6 you     can                 2       1
 7 can     store               2       2
 8 store   your                2       3
 9 your    data                2       4
10 data    in                  2       5
# ... with 13 more rows
```
…
Abstract Graph
===
class:small-code

```r
annotated_abstract
```

```
# A tibble: 114 x 5
   from           to             sentence order type 
   <chr>          <chr>             <int> <int> <chr>
 1 BEGIN_SENT     NNP:MARKOV            1     1 next 
 2 NNP:MARKOV     NNP:CHAIN             1     2 next 
 3 NNP:CHAIN      NNP:MONTE             1     3 next 
 4 NNP:MONTE      NNP:CARLO             1     4 next 
 5 NNP:CARLO      NNS:ALGORITHMS        1     5 next 
 6 NNS:ALGORITHMS VBP:ARE               1     6 next 
 7 VBP:ARE        DT:A                  1     7 next 
 8 DT:A           JJ:GENERAL            1     8 next 
 9 JJ:GENERAL     NN:TECHNIQUE          1     9 next 
10 NN:TECHNIQUE   IN:FOR                1    10 next 
# ... with 104 more rows
```
…
