…
layouts
====
class:small-code

```r
myLayout
```

```
# A tibble: 81 x 3
   Group index      y
   <int> <int>  <dbl>
 1     3     1 0.0526
 2     3     3 0.105 
 3     3     4 0.158 
 4     3     9 0.211 
 5     3    17 0.263 
 6     3    36 0.316 
 7     3    38 0.368 
 8     3    44 0.421 
 9     3    45 0.474 
10     3    53 0.526 
# ... with 71 more rows
```
…
