…
```
# A tibble: 2,245 x 3
   movie                               ave_rating num_rates
   <chr>                                    <dbl>     <int>
 1 Best Years of Our Lives, The (1946)       4.64        11
 2 Inherit the Wind (1960)                   4.54        12
 3 Godfather, The (1972)                     4.49       200
 4 Shawshank Redemption, The (1994)          4.49       311
 5 Tom Jones (1963)                          4.46        12
 6 Gladiator (1992)                          4.45        11
 7 On the Waterfront (1954)                  4.45        29
 8 When We Were Kings (1996)                 4.44        16
 9 All About Eve (1950)                      4.43        38
10 Ran (1985)                                4.42        26
# ... with 2,235 more rows
```
…
explore
```

```
# A tibble: 78,296 x 6
   type  info  rating  timestamp tail   head                              
   <chr> <chr>  <dbl>      <int> <chr>  <chr>                             
 1 RATED <NA>    3.00 1298861675 USER:3 Indian in the Cupboard, The (1995)
 2 RATED <NA>    4.00 1298922049 USER:3 Braveheart (1995)                 
 3 RATED <NA>    3.50 1298861637 USER:3 Heavenly Creatures (1994)         
 4 RATED <NA>    3.00 1298861761 USER:3 Major Payne (1995)                
 5 RATED <NA>    4.50 1298862418 USER:3 Pulp Fiction (1994)               
 6 RATED <NA>    5.00 1298862121 USER:3 Shawshank Redemption, The (1994)  
 7 RATED <NA>    2.50 1298861589 USER:3 Flintstones, The (1994)           
 8 RATED <NA>    5.00 1298862167 USER:3 Forrest Gump (1994)               
 9 RATED <NA>    2.50 1298923242 USER:3 Speed (1994)                      
10 RATED <NA>    3.00 1298862528 USER:3 Schindler's List (1993)           
# ... with 78,286 more rows
```
…
```r
explore %<>%
  group_by(tail) %>%
  summarize(
    ave_rating = mean(rating),
    num_rates = n()
  ) %>%
  arrange(desc(ave_rating), desc(num_rates)) 

explore
```

```
# A tibble: 382 x 3
   tail     ave_rating num_rates
   <chr>         <dbl>     <int>
 1 USER:443       4.85        40
 2 USER:298       4.80        75
 3 USER:622       4.73        31
 4 USER:446       4.62        25
 5 USER:89        4.59        66
 6 USER:656       4.52       128
 7 USER:454       4.50        27
 8 USER:230       4.47        94
 9 USER:544       4.47       268
10 USER:242       4.47       399
# ... with 372 more rows
```
…
