Part 2: A Review of magrittr
…
miscellaneous

t()

Starwars Network

library(tidyverse)
library(magrittr)
library(igraph)
data(starwars)

starwars

## # A tibble: 87 x 13
##    name     height  mass hair_color skin_color eye_color birth_year gender
##    <chr>     <int> <dbl> <chr>      <chr>      <chr>          <dbl> <chr> 
##  1 Luke Sk    172   77. blond      fair       blue            19.0 male  
##  2 C-3PO       167   75. <NA>       gold       yellow         112.  <NA>  
##  3 R2-D2        96   32. <NA>       white, bl red             33.0 <NA>  
##  4 Darth V    202  136. none       white      yellow          41.9 male  
##  5 Leia Or    150   49. brown      light      brown           19.0 female
##  6 Owen La    178  120. brown, gr light      blue            52.0 male  
##  7 Beru Wh    165   75. brown      light      blue            47.0 female
##  8 R5-D4        97   32. <NA>       white, red red             NA   <NA>  
##  9 Biggs D    183   84. black      light      brown           24.0 male  
## 10 Obi-Wan    182   77. auburn, w fair       blue-gray       57.0 male  
## # ... with 77 more rows, and 5 more variables: homeworld <chr>,
## #   species <chr>, films <list>, vehicles <list>, starships <list>

starwars$films[[1]]

## [1] "Revenge of the Sith"     "Return of the Jedi"     
## [3] "The Empire Strikes Back" "A New Hope"             
## [5] "The Force Awakens"

starwars %>% select(name, films)

## # A tibble: 87 x 2
##    name               films    
##    <chr>              <list>   
##  1 Luke Skywalker     <chr [5]>
##  2 C-3PO              <chr [6]>
##  3 R2-D2              <chr [7]>
##  4 Darth Vader        <chr [4]>
##  5 Leia Organa        <chr [5]>
##  6 Owen Lars          <chr [3]>
##  7 Beru Whitesun lars <chr [3]>
##  8 R5-D4              <chr [1]>
##  9 Biggs Darklighter  <chr [1]>
## 10 Obi-Wan Kenobi     <chr [6]>
## # ... with 77 more rows

sw_character_films <- starwars %>%
  select(name, films) %>%
  unnest() %>%
  rename(from = name,
         to = films) %>%
  mutate(type = 'APPEARED IN')

sw_character_films

## # A tibble: 173 x 3
##    from           to                      type       
##    <chr>          <chr>                   <chr>      
##  1 Luke Skywalker Revenge of the Sith     APPEARED IN
##  2 Luke Skywalker Return of the Jedi      APPEARED IN
##  3 Luke Skywalker The Empire Strikes Back APPEARED IN
##  4 Luke Skywalker A New Hope              APPEARED IN
##  5 Luke Skywalker The Force Awakens       APPEARED IN
##  6 C-3PO          Attack of the Clones    APPEARED IN
##  7 C-3PO          The Phantom Menace      APPEARED IN
##  8 C-3PO          Revenge of the Sith     APPEARED IN
##  9 C-3PO          Return of the Jedi      APPEARED IN
## 10 C-3PO          The Empire Strikes Back APPEARED IN
## # ... with 163 more rows

sw_characters <- sw_character_films %>%
  select(from) %>%
  rename(name = from) %>%
  distinct() %>%
  mutate(type = 'CHARACTER')

sw_characters

## # A tibble: 87 x 2
##    name               type     
##    <chr>              <chr>    
##  1 Luke Skywalker     CHARACTER
##  2 C-3PO              CHARACTER
##  3 R2-D2              CHARACTER
##  4 Darth Vader        CHARACTER
##  5 Leia Organa        CHARACTER
##  6 Owen Lars          CHARACTER
##  7 Beru Whitesun lars CHARACTER
##  8 R5-D4              CHARACTER
##  9 Biggs Darklighter  CHARACTER
## 10 Obi-Wan Kenobi     CHARACTER
## # ... with 77 more rows
…
sw_unique_chr_chr %<>%
  left_join(sw_chr_chr)

## Joining, by = c("from", "character")

sw_unique_chr_chr %>%
  arrange(desc(shared_movies))

## # A tibble: 1,793 x 3
##    from           character      shared_movies
##    <chr>          <chr>                  <int>
##  1 C-3PO          Obi-Wan Kenobi             6
##  2 C-3PO          R2-D2                      6
##  3 Obi-Wan Kenobi R2-D2                      6
##  4 C-3PO          Palpatine                  5
##  5 C-3PO          Yoda                       5
##  6 Chewbacca      Leia Organa                5
##  7 Chewbacca      Luke Skywalker             5
##  8 Chewbacca      R2-D2                      5
##  9 Leia Organa    Luke Skywalker             5
## 10 Leia Organa    R2-D2                      5
## # ... with 1,783 more rows
…
